%YAML 1.1
%TAG !u! tag:unity3d.com,2011:
--- !u!114 &11400000
MonoBehaviour:
  m_ObjectHideFlags: 0
  m_CorrespondingSourceObject: {fileID: 0}
  m_PrefabInstance: {fileID: 0}
  m_PrefabAsset: {fileID: 0}
  m_GameObject: {fileID: 0}
  m_Enabled: 1
  m_EditorHideFlags: 0
  m_Script: {fileID: 11500000, guid: 1934016ff48fef34b9f7f9587be8b601, type: 3}
  m_Name: Patronymics
  m_EditorClassIdentifier: 
  dictionary:
  - "\u0418\u0432\u0430\u043D\u043E\u0432\u0430"
  - "\u041F\u0435\u0442\u0440\u043E\u0432\u0430"
  - "\u041C\u0430\u043A\u0441\u0438\u043C\u043E\u0432\u043D\u0430"
  - "\u0412\u0430\u0434\u0438\u043C\u043E\u0432\u043D\u0430"
  - "\u0414\u043C\u0438\u0442\u0440\u0438\u0435\u0432\u0430"
  - "\u0410\u043B\u0435\u043A\u0441\u0430\u043D\u0434\u0440\u043E\u0432\u043D\u0430"
  - "\u041E\u043B\u0435\u0433\u043E\u0432\u043D\u0430"
  - "\u0412\u0438\u043A\u0442\u043E\u0440\u043E\u0432\u043D\u0430"
  - "\u0410\u043D\u0430\u0442\u043E\u043B\u044C\u0435\u0432\u043D\u0430"
  - "\u0413\u043B\u0435\u0431\u043E\u0432\u043D\u0430"
